// Jest Snapshot v1, https://goo.gl/fbAQLP

exports[`RepoDetailsView matches snapshot with existing commits 1`] = `
<div
  className="RepoDetails"
>
  <header>
    <button
      onClick={[MockFunction]}
    >
      &lt;
    </button>
    <h3
      className="header-text"
    >
      <a
        href="https://github.com/freeCodeCamp/freeCodeCamp"
        rel="noopener noreferrer"
        target="blank"
      >
        freeCodeCamp
      </a>
    </h3>
     
    <span
      className="header-text"
    >
      commits in the last 24 hours
    </span>
  </header>
  <div>
    <div
      className="commit"
      key="MDY6Q29tbWl0NmRjYjA5YjViNTc4NzVmMzM0ZjYxYWViZWQ2OTVlMmU0MTkzZGI1ZQ==123"
    >
      <div
        className="commit-header"
      >
        Monalisa Octocat
         
        2011-04-14T16:00:49Z
      </div>
      <div
        className="commit-message"
      >
        Fix all the bugs
      </div>
    </div>
    <div
      className="commit"
      key="MDY6Q29tbWl0NmRjYjA5YjViNTc4NzVmMzM0ZjYxYWViZWQ2OTVlMmU0MTkzZGI1ZQ=="
    >
      <div
        className="commit-header"
      >
        Monalisa Octocat
         
        2011-04-14T16:00:49Z
      </div>
      <div
        className="commit-message"
      >
        Fix all the bugs
      </div>
    </div>
  </div>
</div>
`;
